IXIS Data Science Challenge
…
#there is a slight chance for an outlier in sessions avg per day
#and a significant chance for an outlier in transactions avg per day
#maybe something went viral, or there was a sale, let's investigate

#seems Jan 12th and June 8th are the odd ones out
daily_s_df %>% arrange(desc(transactions_total))

## # A tibble: 365 x 7
##    month   day sessions_total transactions_total quantity_total ECR_total
##    <int> <int>          <int>              <int>          <int>     <dbl>
##  1     6     8          96162               3721           6376    0.0387
##  2     5    25         123562               3222           5910    0.0261
##  3     5    19         103443               2599           4581    0.0251
##  4     1    12          55110               2577           4480    0.0468
##  5     5    29          91723               2288           4524    0.0249
##  6     6    20          74372               2236           3542    0.0301
##  7     4    12          53373               2117           4071    0.0397
##  8     6     1          83964               1957           3554    0.0233
##  9     5    16          70390               1877           3413    0.0267
## 10     6    19          75439               1816           3342    0.0241
## # ... with 355 more rows, and 1 more variable: qty_per_trans_total <dbl>

#it is quite odd that they are one off days
#sessions are at the high end of their distribution these days
#but more significantly it corresponds with a max for Quantity
#which may seem obvious but this led me to discover there can be transactions
#with a corresponding quantity of zero, indicating maybe transactions are recorded
#before a purchase is finalized, this may be something that should be addressed
#in terms of improving data collection or leveraged with additional data assets
#to discover why prospective customers start but do not complete transactions

daily_s_df %>% arrange(desc(qty_per_trans_total))

## # A tibble: 365 x 7
##    month   day sessions_total transactions_total quantity_total ECR_total
##    <int> <int>          <int>              <int>          <int>     <dbl>
##  1    11    11          16723                373            973    0.0223
##  2     1    29          23171                630           1612    0.0272
##  3    10    16          14631                358            889    0.0245
##  4     1    17          26962                774           1875    0.0287
##  5     2     7          10009                137            331    0.0137
##  6    12    27          32968                520           1215    0.0158
##  7     2    10          14372                524           1171    0.0365
##  8    10    25          10949                217            481    0.0198
##  9     2    19          37960               1372           3025    0.0361
## 10     9    12          33803                884           1940    0.0262
## # ... with 355 more rows, and 1 more variable: qty_per_trans_total <dbl>
…
#arranging the data for intuitive display
device_ag_df <- device_ag_df %>% arrange(dim_deviceCategory, year, month)
#seems this part of the deliverable displays correctly
device_ag_df

## # A tibble: 36 x 7
##    dim_deviceCategory month  year sessions transactions quantity    ECR
##    <fct>              <int> <dbl>    <int>        <int>    <int>  <dbl>
##  1 desktop                7  2012   335429        10701    18547 0.0319
##  2 desktop                8  2012   392079        12912    23316 0.0329
##  3 desktop                9  2012   272771         8898    16507 0.0326
##  4 desktop               10  2012   302682         9373    17675 0.0310
##  5 desktop               11  2012   320717        10350    18778 0.0323
##  6 desktop               12  2012   309718        11613    19947 0.0375
##  7 desktop                1  2013   393723        13793    25424 0.0350
##  8 desktop                2  2013   247632         9699    18437 0.0392
##  9 desktop                3  2013   287837         9679    17362 0.0336
## 10 desktop                4  2013   567510        18868    34200 0.0332
## # ... with 26 more rows
…
